{
  "sortKit": {
    "sortMode": "ASC",
    "sortingCriteria": "TIME_SCALE"
  },
  "searchKit": {
    "searchCriteria": {
      "timeScale": {
        "id": 1,
        "scale": "year",
        "tasks": [
        ]
      },
      "category": {
        "id": 5,
        "name": "job",
        "description": "work like a dog",
        "tasks": [
        ]
      }
    },
    "searchingMode": "AND"
  },
  "paginationConfig": {
    "startIndex": 0,
    "offset": 99
  }
}